…
    ## `summarise()` has grouped output by 'decile_cat', 'race'. You can override
    ## using the `.groups` argument.

``` r
compas_recid %>%
  filter(is_recid == 1) %>%
  summarise(decile_cat, race, recid_rate, is_recid)
```

    ## `summarise()` has grouped output by 'decile_cat'. You can override using the
    ## `.groups` argument.

    ## # A tibble: 53 × 4
    ## # Groups:   decile_cat [10]
    ##    decile_cat race             recid_rate is_recid
    ##    <fct>      <chr>                 <dbl>    <dbl>
    ##  1 1          African-American     0.251         1
    ##  2 1          Asian                0.0667        1
    ##  3 1          Caucasian            0.226         1
    ##  4 1          Hispanic             0.255         1
    ##  5 1          Other                0.193         1
    ##  6 2          African-American     0.346         1
    ##  7 2          Caucasian            0.346         1
    ##  8 2          Hispanic             0.336         1
    ##  9 2          Other                0.394         1
    ## 10 3          African-American     0.474         1
    ## # ℹ 43 more rows
…
